Time, LQI, Audio files, Jeti, RSSI, HOPPING, Altitude, Distance
00:01, 050%, 3, 000%, -29dBm, 001, 6, 9
00:02, 045%, 0, 000%, -48dBm, 001, 9, 14
00:03, 025%, 0, 000%, -63dBm, 001, 23, 27
00:03, 045%, 0, 000%, -65dBm, 001, 23, 27
00:03, 005%, 0, 000%, -72dBm, 001, 23, 27
00:06, 000%, 0, 000%, -77dBm, 001, 49, 52
00:07, 040%, 1, 000%, -68dBm, 001, 56, 62
00:08, 095%, 2, 000%, -65dBm, 001, 65, 72
00:09, 085%, 2, 000%, -64dBm, 001, 74, 81
00:10, 090%, 2, 000%, -55dBm, 001, 84, 90
00:11, 100%, 1, 000%, -56dBm, 001, 92, 100
00:12, 090%, 1, 000%, -61dBm, 001, 101, 107
00:13, 100%, 1, 000%, -61dBm, 001, 109, 119
00:15, 100%, 2, 000%, -62dBm, 001, 118, 127
00:16, 100%, 2, 000%, -66dBm, 001, 126, 139
00:17, 095%, 2, 000%, -59dBm, 001, 135, 150
00:18, 100%, 0, 000%, -61dBm, 001, 144, 159
00:18, 100%, 0, 000%, -61dBm, 001, 146, 161
00:20, 015%, 2, 000%, -67dBm, 001, 163, 174
00:20, 065%, 1, 000%, -61dBm, 001, 173, 177
00:21, 100%, 2, 000%, -61dBm, 001, 179, 173
00:22, 070%, 1, 000%, -64dBm, 001, 189, 158
00:23, 090%, 2, 000%, -54dBm, 001, 193, 139
00:24, 100%, 0, 000%, -56dBm, 001, 196, 128
00:25, 100%, 1, 000%, -54dBm, 001, 196, 133
00:26, 075%, 2, 000%, -61dBm, 001, 197, 136
00:27, 090%, 2, 000%, -55dBm, 001, 200, 135
00:28, 095%, 0, 000%, -53dBm, 001, 199, 131
00:29, 090%, 1, 000%, -53dBm, 001, 199, 123
00:30, 100%, 1, 000%, -50dBm, 001, 197, 114
00:31, 095%, 0, 000%, -48dBm, 001, 195, 104
00:32, 100%, 0, 000%, -49dBm, 001, 192, 92
00:33, 100%, 1, 000%, -50dBm, 001, 188, 80
00:34, 100%, 1, 000%, -50dBm, 001, 186, 72
00:36, 100%, 1, 000%, -49dBm, 001, 186, 71
00:37, 100%, 1, 000%, -51dBm, 001, 188, 74
00:38, 100%, 2, 000%, -56dBm, 001, 189, 78
00:39, 100%, 0, 000%, -56dBm, 001, 190, 86
00:39, 100%, 0, 000%, -58dBm, 001, 189, 95
00:40, 095%, 0, 000%, -58dBm, 001, 188, 105
00:41, 100%, 0, 000%, -55dBm, 001, 187, 113
00:42, 100%, 0, 000%, -57dBm, 001, 186, 115
00:43, 100%, 0, 000%, -49dBm, 001, 183, 114
00:44, 090%, 2, 000%, -48dBm, 001, 180, 109
00:46, 100%, 1, 000%, -49dBm, 001, 177, 104
00:47, 100%, 0, 000%, -50dBm, 001, 177, 104
00:48, 100%, 0, 000%, -50dBm, 001, 178, 105
00:49, 100%, 0, 000%, -56dBm, 001, 179, 106
00:49, 100%, 1, 000%, -54dBm, 001, 179, 104
00:50, 100%, 1, 000%, -53dBm, 001, 178, 102
00:51, 100%, 0, 000%, -50dBm, 001, 177, 99
00:52, 100%, 0, 000%, -45dBm, 001, 178, 93
00:53, 100%, 0, 000%, -45dBm, 001, 179, 87
00:54, 100%, 1, 000%, -52dBm, 001, 182, 86
00:55, 100%, 1, 000%, -54dBm, 001, 182, 90
00:57, 100%, 0, 000%, -50dBm, 001, 183, 98
00:58, 100%, 0, 000%, -54dBm, 001, 187, 106
00:59, 100%, 0, 000%, -54dBm, 001, 191, 111
01:00, 100%, 0, 000%, -54dBm, 001, 194, 113
01:01, 100%, 0, 000%, -55dBm, 001, 195, 115
01:02, 100%, 0, 000%, -58dBm, 001, 195, 117
01:03, 100%, 0, 000%, -58dBm, 001, 194, 115
01:04, 080%, 0, 000%, -61dBm, 001, 194, 108
01:05, 100%, 0, 000%, -44dBm, 001, 193, 97
01:06, 100%, 0, 000%, -44dBm, 001, 190, 87
01:06, 100%, 0, 000%, -53dBm, 001, 190, 87
01:08, 075%, 0, 000%, -62dBm, 001, 193, 89
01:09, 090%, 0, 000%, -60dBm, 001, 193, 89
01:10, 080%, 0, 000%, -62dBm, 001, 194, 90
01:10, 100%, 0, 000%, -63dBm, 001, 193, 88
01:11, 080%, 0, 000%, -58dBm, 001, 191, 88
01:12, 100%, 0, 000%, -54dBm, 001, 191, 86
01:12, 090%, 1, 000%, -57dBm, 001, 191, 85
01:14, 090%, 1, 000%, -56dBm, 001, 191, 85
01:15, 100%, 0, 000%, -50dBm, 001, 189, 86
01:16, 100%, 0, 000%, -50dBm, 001, 188, 88
01:18, 100%, 1, 000%, -57dBm, 001, 188, 94
01:19, 095%, 1, 000%, -58dBm, 001, 189, 101
01:20, 100%, 0, 000%, -59dBm, 001, 189, 111
01:21, 100%, 0, 000%, -58dBm, 001, 188, 120
01:22, 100%, 0, 000%, -62dBm, 001, 187, 130
01:23, 090%, 0, 000%, -59dBm, 001, 184, 140
01:24, 100%, 0, 000%, -59dBm, 001, 183, 151
01:25, 100%, 1, 000%, -58dBm, 001, 182, 161
01:26, 100%, 1, 000%, -55dBm, 001, 183, 172
01:27, 100%, 0, 000%, -57dBm, 001, 183, 182
01:28, 100%, 0, 000%, -57dBm, 001, 182, 194
01:28, 100%, 0, 000%, -59dBm, 001, 181, 200
01:30, 075%, 0, 000%, -64dBm, 001, 180, 211
01:31, 080%, 0, 000%, -66dBm, 001, 180, 220
01:31, 090%, 0, 000%, -68dBm, 001, 180, 224
01:33, 035%, 0, 000%, -69dBm, 001, 178, 229
01:34, 090%, 0, 000%, -58dBm, 001, 176, 228
01:35, 100%, 0, 000%, -57dBm, 001, 174, 225
01:36, 080%, 0, 000%, -57dBm, 001, 171, 219
01:36, 095%, 0, 000%, -58dBm, 001, 169, 212
01:37, 090%, 0, 000%, -58dBm, 001, 167, 207
01:38, 090%, 0, 000%, -56dBm, 001, 166, 202
01:39, 100%, 0, 000%, -55dBm, 001, 166, 196
01:41, 100%, 1, 000%, -54dBm, 001, 165, 191
01:42, 100%, 1, 000%, -56dBm, 001, 164, 188
01:43, 095%, 0, 000%, -57dBm, 001, 164, 186
01:44, 090%, 0, 000%, -58dBm, 001, 164, 187
01:45, 100%, 0, 000%, -60dBm, 001, 164, 192
01:46, 090%, 0, 000%, -68dBm, 001, 164, 196
01:47, 100%, 0, 000%, -63dBm, 001, 164, 201
01:48, 100%, 0, 000%, -58dBm, 001, 164, 202
01:49, 100%, 0, 000%, -61dBm, 001, 162, 202
01:49, 090%, 0, 000%, -51dBm, 001, 160, 199
01:50, 090%, 0, 000%, -50dBm, 001, 157, 195
01:51, 100%, 0, 000%, -52dBm, 001, 154, 192
01:52, 070%, 0, 000%, -52dBm, 001, 153, 192
01:53, 100%, 1, 000%, -53dBm, 001, 152, 194
01:54, 085%, 1, 000%, -64dBm, 001, 152, 199
01:55, 090%, 0, 000%, -66dBm, 001, 152, 207
01:56, 100%, 0, 000%, -59dBm, 001, 153, 214
01:57, 090%, 0, 000%, -59dBm, 001, 153, 221
01:58, 100%, 0, 000%, -58dBm, 001, 153, 227
01:59, 100%, 0, 000%, -59dBm, 001, 153, 231
02:00, 090%, 0, 000%, -52dBm, 001, 152, 235
02:02, 100%, 0, 000%, -56dBm, 001, 152, 238
02:03, 100%, 0, 000%, -52dBm, 001, 153, 242
02:03, 095%, 2, 000%, -53dBm, 001, 152, 245
02:04, 080%, 0, 000%, -56dBm, 001, 150, 249
02:05, 095%, 0, 000%, -58dBm, 001, 149, 252
02:06, 100%, 0, 000%, -54dBm, 001, 149, 258
02:07, 100%, 0, 000%, -54dBm, 001, 148, 262
02:08, 100%, 1, 000%, -56dBm, 001, 147, 270
02:09, 100%, 2, 000%, -58dBm, 001, 146, 276
02:10, 095%, 1, 000%, -64dBm, 001, 145, 279
02:11, 100%, 1, 000%, -61dBm, 001, 144, 277
02:12, 090%, 0, 000%, -52dBm, 001, 141, 270
02:13, 100%, 0, 000%, -49dBm, 001, 140, 262
02:14, 100%, 0, 000%, -49dBm, 001, 137, 250
02:15, 100%, 0, 000%, -49dBm, 001, 135, 240
02:16, 100%, 0, 000%, -48dBm, 001, 133, 225
02:17, 100%, 0, 000%, -49dBm, 001, 132, 213
02:18, 100%, 0, 000%, -47dBm, 001, 133, 203
02:19, 090%, 0, 000%, -45dBm, 001, 133, 196
02:21, 090%, 0, 000%, -45dBm, 001, 133, 189
02:22, 100%, 0, 000%, -49dBm, 001, 133, 187
02:23, 100%, 0, 000%, -50dBm, 001, 132, 184
02:24, 100%, 0, 000%, -53dBm, 001, 132, 182
02:24, 100%, 0, 000%, -52dBm, 001, 132, 179
02:25, 100%, 0, 000%, -54dBm, 001, 132, 174
02:26, 095%, 0, 000%, -54dBm, 001, 132, 170
02:27, 075%, 0, 000%, -56dBm, 001, 131, 169
02:28, 085%, 0, 000%, -60dBm, 001, 131, 173
02:29, 045%, 0, 000%, -63dBm, 001, 131, 178
02:30, 100%, 0, 000%, -61dBm, 001, 131, 181
02:31, 100%, 0, 000%, -62dBm, 001, 130, 186
02:32, 100%, 0, 000%, -61dBm, 001, 130, 190
02:33, 100%, 0, 000%, -61dBm, 001, 130, 193
02:34, 100%, 0, 000%, -59dBm, 001, 130, 196
02:35, 085%, 0, 000%, -59dBm, 001, 130, 199
02:36, 100%, 0, 000%, -63dBm, 001, 130, 202
02:37, 100%, 0, 000%, -60dBm, 001, 129, 206
02:38, 100%, 0, 000%, -60dBm, 001, 129, 210
02:39, 100%, 0, 000%, -61dBm, 001, 128, 213
02:40, 100%, 0, 000%, -60dBm, 001, 126, 211
02:42, 100%, 0, 000%, -55dBm, 001, 127, 204
02:43, 090%, 0, 000%, -54dBm, 001, 127, 191
02:44, 095%, 0, 000%, -61dBm, 001, 125, 176
02:45, 100%, 0, 000%, -65dBm, 001, 122, 160
02:45, 100%, 0, 000%, -62dBm, 001, 121, 144
02:46, 100%, 0, 000%, -61dBm, 001, 120, 128
02:47, 100%, 0, 000%, -61dBm, 001, 119, 112
02:48, 100%, 0, 000%, -56dBm, 001, 119, 97
02:49, 100%, 1, 000%, -57dBm, 001, 119, 81
02:50, 100%, 1, 000%, -50dBm, 001, 119, 69
02:51, 100%, 0, 000%, -49dBm, 001, 119, 57
02:52, 100%, 0, 000%, -50dBm, 001, 119, 49
02:53, 100%, 0, 000%, -54dBm, 001, 118, 46
02:54, 100%, 0, 000%, -57dBm, 001, 118, 48
02:56, 100%, 1, 000%, -62dBm, 001, 117, 52
02:57, 100%, 1, 000%, -60dBm, 001, 116, 60
02:58, 100%, 0, 000%, -56dBm, 001, 115, 71
02:58, 090%, 0, 000%, -57dBm, 001, 114, 82
02:59, 095%, 0, 000%, -60dBm, 001, 114, 95
03:00, 100%, 0, 000%, -54dBm, 001, 115, 108
03:01, 100%, 0, 000%, -50dBm, 001, 115, 120
03:03, 100%, 0, 000%, -54dBm, 001, 115, 131
03:04, 100%, 0, 000%, -56dBm, 001, 114, 143
03:05, 100%, 0, 000%, -58dBm, 001, 113, 153
03:05, 100%, 0, 000%, -65dBm, 001, 113, 161
03:07, 050%, 0, 000%, -70dBm, 001, 113, 178
03:08, 090%, 0, 000%, -65dBm, 001, 112, 189
03:09, 100%, 0, 000%, -64dBm, 001, 111, 201
03:10, 100%, 0, 000%, -63dBm, 001, 110, 210
03:11, 100%, 0, 000%, -62dBm, 001, 109, 219
03:12, 100%, 0, 000%, -59dBm, 001, 107, 221
03:13, 100%, 0, 000%, -56dBm, 001, 105, 219
03:14, 100%, 0, 000%, -56dBm, 001, 102, 214
03:15, 100%, 0, 000%, -54dBm, 001, 98, 206
03:16, 100%, 2, 000%, -54dBm, 001, 95, 196
03:17, 100%, 2, 000%, -54dBm, 001, 93, 186
03:18, 095%, 0, 000%, -53dBm, 001, 92, 178
03:19, 090%, 0, 000%, -52dBm, 001, 92, 172
03:19, 090%, 0, 000%, -49dBm, 001, 92, 167
03:20, 100%, 0, 000%, -49dBm, 001, 93, 164
03:21, 100%, 0, 000%, -50dBm, 001, 92, 161
03:22, 100%, 0, 000%, -52dBm, 001, 91, 162
03:24, 090%, 0, 000%, -51dBm, 001, 90, 164
03:25, 100%, 0, 000%, -56dBm, 001, 89, 167
03:26, 100%, 0, 000%, -61dBm, 001, 88, 169
03:27, 095%, 0, 000%, -57dBm, 001, 88, 171
03:28, 100%, 0, 000%, -57dBm, 001, 87, 173
03:29, 100%, 0, 000%, -58dBm, 001, 86, 176
03:30, 090%, 0, 000%, -59dBm, 001, 85, 179
03:31, 100%, 0, 000%, -61dBm, 001, 84, 182
03:31, 080%, 0, 000%, -64dBm, 001, 83, 186
03:33, 080%, 0, 000%, -63dBm, 001, 84, 192
03:34, 100%, 0, 000%, -60dBm, 001, 84, 199
03:35, 100%, 0, 000%, -61dBm, 001, 84, 206
03:36, 090%, 0, 000%, -63dBm, 001, 82, 213
03:37, 100%, 0, 000%, -57dBm, 001, 81, 220
03:37, 100%, 0, 000%, -57dBm, 001, 80, 228
03:38, 095%, 1, 000%, -63dBm, 001, 79, 236
03:38, 100%, 1, 000%, -63dBm, 001, 78, 243
03:40, 090%, 0, 000%, -64dBm, 001, 78, 253
03:41, 090%, 0, 000%, -62dBm, 001, 77, 260
03:42, 100%, 0, 000%, -58dBm, 001, 77, 268
03:43, 100%, 0, 000%, -58dBm, 001, 76, 273
03:45, 100%, 0, 000%, -57dBm, 001, 75, 277
03:46, 100%, 0, 000%, -55dBm, 001, 74, 275
03:47, 070%, 0, 000%, -54dBm, 001, 72, 269
03:48, 100%, 0, 000%, -48dBm, 001, 71, 261
03:49, 100%, 0, 000%, -48dBm, 001, 69, 252
03:50, 100%, 0, 000%, -50dBm, 001, 68, 241
03:51, 100%, 0, 000%, -49dBm, 001, 66, 229
03:52, 100%, 0, 000%, -49dBm, 001, 65, 217
03:53, 100%, 0, 000%, -49dBm, 001, 63, 204
03:54, 100%, 0, 000%, -49dBm, 001, 62, 193
03:55, 090%, 0, 000%, -49dBm, 001, 61, 183
03:56, 100%, 1, 000%, -49dBm, 001, 59, 176
03:57, 100%, 1, 000%, -53dBm, 001, 57, 171
03:58, 100%, 0, 000%, -59dBm, 001, 57, 170
03:58, 100%, 0, 000%, -63dBm, 001, 56, 167
03:59, 095%, 0, 000%, -64dBm, 001, 55, 167
04:00, 100%, 0, 000%, -60dBm, 001, 55, 167
04:01, 100%, 0, 000%, -58dBm, 001, 54, 166
04:02, 100%, 0, 000%, -55dBm, 001, 53, 166
04:03, 100%, 0, 000%, -57dBm, 001, 51, 167
04:04, 100%, 0, 000%, -57dBm, 001, 51, 169
04:06, 100%, 0, 000%, -57dBm, 001, 49, 173
04:07, 045%, 0, 000%, -65dBm, 001, 49, 178
04:08, 100%, 0, 000%, -61dBm, 001, 48, 183
04:09, 090%, 0, 000%, -61dBm, 001, 48, 187
04:10, 100%, 1, 000%, -63dBm, 001, 48, 193
04:11, 100%, 2, 000%, -63dBm, 001, 48, 198
04:11, 100%, 2, 000%, -58dBm, 001, 48, 203
04:12, 100%, 0, 000%, -55dBm, 001, 47, 206
04:13, 095%, 0, 000%, -55dBm, 001, 47, 209
04:14, 100%, 0, 000%, -54dBm, 001, 46, 209
04:15, 100%, 2, 000%, -56dBm, 001, 45, 201
04:16, 100%, 0, 000%, -55dBm, 001, 45, 190
04:17, 100%, 0, 000%, -63dBm, 001, 43, 176
04:18, 100%, 0, 000%, -59dBm, 001, 40, 161
04:19, 100%, 0, 000%, -56dBm, 001, 37, 145
04:20, 100%, 0, 000%, -52dBm, 001, 32, 125
04:21, 100%, 0, 000%, -49dBm, 001, 29, 106
04:22, 100%, 0, 000%, -49dBm, 001, 27, 84
04:23, 100%, 0, 000%, -48dBm, 001, 24, 65
04:24, 100%, 0, 000%, -49dBm, 001, 23, 45
04:25, 095%, 0, 000%, -58dBm, 001, 22, 26
04:27, 100%, 0, 000%, -51dBm, 001, 23, 14
04:28, 095%, 1, 000%, -52dBm, 001, 23, 22
04:29, 090%, 1, 000%, -64dBm, 001, 24, 38
04:30, 100%, 0, 000%, -64dBm, 001, 25, 52
04:31, 080%, 0, 000%, -67dBm, 001, 26, 66
04:32, 090%, 0, 000%, -63dBm, 001, 26, 80
04:32, 100%, 0, 000%, -65dBm, 001, 26, 93
04:33, 100%, 0, 000%, -66dBm, 001, 25, 109
04:34, 100%, 0, 000%, -59dBm, 001, 23, 123
04:35, 090%, 0, 000%, -63dBm, 001, 22, 138
04:36, 090%, 0, 000%, -62dBm, 001, 22, 152
04:37, 100%, 1, 000%, -63dBm, 001, 21, 165
04:38, 100%, 1, 000%, -54dBm, 001, 19, 176
04:39, 100%, 0, 000%, -59dBm, 001, 18, 183
04:40, 090%, 2, 000%, -56dBm, 001, 17, 185
04:41, 080%, 0, 000%, -58dBm, 001, 20, 185
04:42, 100%, 1, 000%, -60dBm, 001, 25, 184
04:43, 100%, 1, 000%, -59dBm, 001, 30, 179
04:44, 100%, 1, 000%, -54dBm, 001, 35, 174
04:45, 100%, 2, 000%, -52dBm, 001, 40, 167
04:46, 100%, 0, 000%, -49dBm, 001, 45, 162
04:47, 100%, 0, 000%, -52dBm, 001, 52, 159
04:48, 080%, 0, 000%, -57dBm, 001, 59, 155
04:49, 070%, 1, 000%, -62dBm, 001, 65, 152
04:50, 060%, 1, 000%, -64dBm, 001, 72, 151
04:52, 100%, 0, 000%, -57dBm, 001, 78, 148
04:53, 080%, 0, 000%, -50dBm, 001, 85, 145
04:53, 105%, 0, 000%, -49dBm, 001, 92, 143
04:54, 100%, 1, 000%, -47dBm, 001, 99, 141
04:55, 100%, 2, 000%, -47dBm, 001, 106, 138
04:56, 085%, 1, 000%, -49dBm, 001, 113, 134
04:57, 100%, 1, 000%, -51dBm, 001, 120, 129
04:58, 100%, 1, 000%, -56dBm, 001, 128, 129
04:59, 100%, 0, 000%, -58dBm, 001, 135, 133
05:00, 095%, 0, 000%, -57dBm, 001, 145, 139
05:01, 100%, 0, 000%, -60dBm, 001, 153, 146
05:02, 100%, 2, 000%, -63dBm, 001, 161, 153
05:03, 100%, 2, 000%, -59dBm, 001, 167, 159
05:04, 080%, 1, 000%, -59dBm, 001, 176, 161
05:05, 055%, 2, 000%, -62dBm, 001, 182, 164
05:05, 090%, 1, 000%, -57dBm, 001, 188, 162
05:06, 100%, 1, 000%, -56dBm, 001, 187, 158
05:08, 095%, 1, 000%, -55dBm, 001, 188, 148
05:09, 100%, 2, 000%, -57dBm, 001, 189, 135
05:10, 100%, 0, 000%, -48dBm, 001, 189, 120
05:11, 100%, 0, 000%, -47dBm, 001, 187, 112
05:12, 095%, 0, 000%, -50dBm, 001, 186, 105
05:13, 090%, 0, 000%, -57dBm, 001, 186, 97
05:15, 100%, 0, 000%, -59dBm, 001, 185, 88
05:16, 100%, 0, 000%, -57dBm, 001, 184, 80
05:16, 100%, 0, 000%, -54dBm, 001, 183, 72
05:17, 100%, 0, 000%, -53dBm, 001, 181, 64
05:18, 100%, 0, 000%, -54dBm, 001, 179, 59
05:19, 100%, 1, 000%, -54dBm, 001, 178, 57
05:20, 090%, 1, 000%, -53dBm, 001, 177, 59
05:21, 100%, 0, 000%, -53dBm, 001, 176, 68
05:22, 100%, 1, 000%, -57dBm, 001, 176, 81
05:23, 100%, 1, 000%, -59dBm, 001, 176, 93
05:24, 095%, 0, 000%, -61dBm, 001, 175, 106
05:24, 100%, 0, 000%, -64dBm, 001, 175, 118
05:25, 090%, 0, 000%, -67dBm, 001, 174, 131
05:27, 090%, 0, 000%, -63dBm, 001, 174, 144
05:28, 100%, 0, 000%, -63dBm, 001, 173, 158
05:29, 100%, 0, 000%, -63dBm, 001, 171, 171
05:30, 100%, 0, 000%, -63dBm, 001, 169, 184
05:31, 095%, 0, 000%, -64dBm, 001, 169, 200
05:32, 105%, 0, 000%, -66dBm, 001, 169, 212
05:33, 100%, 0, 000%, -69dBm, 001, 169, 223
05:34, 100%, 0, 000%, -68dBm, 001, 168, 231
05:35, 100%, 0, 000%, -66dBm, 001, 166, 237
05:36, 090%, 0, 000%, -67dBm, 001, 164, 240
05:38, 100%, 0, 000%, -64dBm, 001, 162, 240
05:39, 100%, 0, 000%, -54dBm, 001, 159, 238
05:39, 100%, 0, 000%, -52dBm, 001, 157, 234
05:40, 100%, 0, 000%, -51dBm, 001, 155, 229
05:41, 100%, 0, 000%, -50dBm, 001, 153, 224
05:42, 100%, 0, 000%, -49dBm, 001, 152, 219
05:43, 100%, 0, 000%, -49dBm, 001, 151, 215
05:44, 100%, 0, 000%, -50dBm, 001, 151, 212
05:45, 100%, 0, 000%, -51dBm, 001, 151, 212
05:45, 100%, 0, 000%, -53dBm, 001, 150, 211
05:46, 100%, 0, 000%, -56dBm, 001, 150, 210
05:48, 090%, 0, 000%, -53dBm, 001, 149, 209
05:49, 090%, 0, 000%, -54dBm, 001, 148, 209
05:51, 100%, 0, 000%, -53dBm, 001, 146, 207
05:52, 090%, 0, 000%, -52dBm, 001, 145, 206
05:52, 100%, 0, 000%, -52dBm, 001, 144, 205
05:53, 100%, 0, 000%, -54dBm, 001, 143, 204
05:54, 100%, 0, 000%, -56dBm, 001, 142, 204
05:55, 100%, 0, 000%, -54dBm, 001, 142, 207
05:56, 100%, 0, 000%, -56dBm, 001, 142, 208
05:57, 100%, 0, 000%, -53dBm, 001, 141, 211
05:58, 100%, 0, 000%, -52dBm, 001, 139, 214
05:59, 095%, 1, 000%, -53dBm, 001, 138, 215
06:01, 090%, 1, 000%, -51dBm, 001, 137, 217
06:02, 100%, 0, 000%, -50dBm, 001, 137, 222
06:02, 100%, 0, 000%, -50dBm, 001, 137, 226
06:03, 100%, 0, 000%, -49dBm, 001, 136, 231
06:04, 090%, 0, 000%, -49dBm, 001, 135, 234
06:05, 100%, 0, 000%, -49dBm, 001, 135, 238
06:06, 095%, 0, 000%, -52dBm, 001, 134, 244
06:06, 105%, 0, 000%, -52dBm, 001, 133, 251
06:07, 100%, 0, 000%, -54dBm, 001, 132, 257
06:08, 100%, 0, 000%, -56dBm, 001, 131, 260
06:09, 100%, 0, 000%, -56dBm, 001, 130, 266
06:12, 090%, 0, 000%, -54dBm, 001, 129, 269
06:13, 100%, 0, 000%, -54dBm, 001, 128, 273
06:13, 100%, 0, 000%, -55dBm, 001, 126, 272
06:15, 080%, 0, 000%, -61dBm, 001, 125, 268
06:16, 100%, 0, 000%, -56dBm, 001, 123, 261
06:17, 100%, 1, 000%, -51dBm, 001, 122, 254
06:17, 100%, 1, 000%, -49dBm, 001, 120, 244
06:18, 100%, 0, 000%, -48dBm, 001, 118, 236
06:19, 095%, 0, 000%, -48dBm, 001, 117, 227
06:20, 105%, 0, 000%, -46dBm, 001, 116, 217
06:21, 095%, 0, 000%, -44dBm, 001, 116, 210
06:22, 100%, 0, 000%, -43dBm, 001, 116, 201
06:23, 100%, 2, 000%, -43dBm, 001, 116, 194
06:24, 095%, 0, 000%, -43dBm, 001, 116, 187
06:25, 085%, 0, 000%, -43dBm, 001, 115, 178
06:26, 105%, 0, 000%, -45dBm, 001, 114, 171
06:27, 095%, 0, 000%, -46dBm, 001, 113, 167
06:28, 105%, 0, 000%, -49dBm, 001, 112, 166
06:29, 095%, 0, 000%, -52dBm, 001, 112, 166
06:30, 100%, 0, 000%, -51dBm, 001, 111, 168
06:31, 100%, 0, 000%, -52dBm, 001, 112, 168
06:33, 105%, 0, 000%, -52dBm, 001, 111, 169
06:34, 095%, 0, 000%, -52dBm, 001, 111, 171
06:35, 100%, 0, 000%, -53dBm, 001, 111, 171
06:36, 100%, 0, 000%, -57dBm, 001, 110, 174
06:37, 100%, 0, 000%, -58dBm, 001, 110, 176
06:38, 100%, 0, 000%, -61dBm, 001, 109, 180
06:38, 100%, 0, 000%, -61dBm, 001, 108, 185
06:39, 100%, 0, 000%, -58dBm, 001, 107, 194
06:40, 100%, 0, 000%, -59dBm, 001, 107, 202
06:41, 100%, 0, 000%, -57dBm, 001, 108, 209
06:42, 100%, 0, 000%, -55dBm, 001, 108, 210
06:43, 100%, 0, 000%, -55dBm, 001, 107, 206
06:44, 100%, 0, 000%, -49dBm, 001, 105, 194
06:45, 100%, 0, 000%, -49dBm, 001, 103, 181
06:46, 100%, 2, 000%, -50dBm, 001, 99, 166
06:47, 100%, 1, 000%, -57dBm, 001, 95, 147
06:48, 100%, 1, 000%, -49dBm, 001, 91, 128
06:49, 100%, 2, 000%, -49dBm, 001, 90, 111
06:50, 095%, 0, 000%, -55dBm, 001, 91, 96
06:51, 100%, 1, 000%, -49dBm, 001, 92, 84
06:52, 090%, 1, 000%, -46dBm, 001, 93, 72
06:54, 100%, 0, 000%, -45dBm, 001, 93, 61
06:55, 100%, 0, 000%, -45dBm, 001, 93, 49
06:56, 100%, 0, 000%, -45dBm, 001, 93, 42
06:57, 090%, 0, 000%, -46dBm, 001, 92, 38
06:58, 100%, 1, 000%, -48dBm, 001, 91, 38
06:59, 090%, 1, 000%, -54dBm, 001, 90, 46
06:59, 100%, 0, 000%, -53dBm, 001, 89, 57
07:00, 100%, 0, 000%, -50dBm, 001, 88, 70
07:01, 100%, 0, 000%, -54dBm, 001, 88, 83
07:02, 100%, 0, 000%, -54dBm, 001, 88, 96
07:03, 100%, 0, 000%, -57dBm, 001, 88, 109
07:04, 100%, 0, 000%, -58dBm, 001, 88, 121
07:05, 100%, 0, 000%, -61dBm, 001, 86, 135
07:06, 100%, 0, 000%, -64dBm, 001, 85, 149
07:07, 095%, 0, 000%, -61dBm, 001, 83, 162
07:08, 100%, 0, 000%, -59dBm, 001, 81, 177
07:09, 095%, 0, 000%, -61dBm, 001, 80, 193
07:10, 100%, 0, 000%, -72dBm, 001, 79, 209
07:11, 080%, 0, 000%, -70dBm, 001, 78, 224
07:12, 100%, 0, 000%, -62dBm, 001, 76, 234
07:13, 100%, 0, 000%, -59dBm, 001, 73, 236
07:15, 095%, 0, 000%, -65dBm, 001, 70, 235
07:16, 100%, 0, 000%, -54dBm, 001, 67, 230
07:17, 100%, 0, 000%, -50dBm, 001, 65, 225
07:18, 100%, 0, 000%, -49dBm, 001, 64, 220
07:18, 100%, 0, 000%, -49dBm, 001, 63, 216
07:19, 080%, 0, 000%, -49dBm, 001, 61, 212
07:20, 085%, 0, 000%, -49dBm, 001, 60, 208
07:21, 100%, 0, 000%, -50dBm, 001, 59, 205
07:22, 090%, 0, 000%, -53dBm, 001, 58, 204
07:23, 090%, 0, 000%, -55dBm, 001, 58, 204
07:24, 090%, 0, 000%, -57dBm, 001, 58, 205
07:25, 100%, 0, 000%, -56dBm, 001, 59, 208
07:26, 100%, 0, 000%, -53dBm, 001, 58, 211
07:27, 100%, 0, 000%, -55dBm, 001, 57, 213
07:28, 100%, 0, 000%, -53dBm, 001, 55, 217
07:29, 100%, 0, 000%, -52dBm, 001, 54, 222
07:30, 100%, 0, 000%, -50dBm, 001, 53, 225
07:31, 100%, 0, 000%, -52dBm, 001, 52, 229
07:32, 080%, 0, 000%, -53dBm, 001, 51, 231
07:32, 100%, 0, 000%, -54dBm, 001, 50, 233
07:33, 100%, 0, 000%, -54dBm, 001, 49, 237
07:35, 100%, 0, 000%, -48dBm, 001, 48, 241
07:36, 100%, 0, 000%, -49dBm, 001, 47, 246
07:37, 100%, 2, 000%, -52dBm, 001, 46, 252
07:38, 105%, 1, 000%, -54dBm, 001, 46, 258
07:39, 095%, 1, 000%, -52dBm, 001, 45, 262
07:40, 105%, 0, 000%, -53dBm, 001, 45, 268
07:41, 095%, 0, 000%, -54dBm, 001, 44, 272
07:42, 105%, 0, 000%, -55dBm, 001, 44, 278
07:43, 095%, 0, 000%, -56dBm, 001, 44, 277
07:44, 100%, 0, 000%, -57dBm, 001, 43, 274
07:45, 100%, 0, 000%, -49dBm, 001, 42, 267
07:46, 100%, 0, 000%, -47dBm, 001, 42, 258
07:47, 100%, 0, 000%, -46dBm, 001, 41, 251
07:48, 100%, 0, 000%, -45dBm, 001, 40, 243
07:49, 100%, 0, 000%, -45dBm, 001, 38, 234
07:50, 100%, 0, 000%, -46dBm, 001, 37, 223
07:51, 100%, 1, 000%, -45dBm, 001, 36, 211
07:52, 100%, 1, 000%, -45dBm, 001, 34, 201
07:53, 100%, 0, 000%, -45dBm, 001, 33, 186
07:53, 100%, 1, 000%, -46dBm, 001, 32, 174
07:54, 100%, 1, 000%, -45dBm, 001, 31, 164
07:56, 100%, 0, 000%, -45dBm, 001, 30, 158
07:57, 100%, 0, 000%, -50dBm, 001, 30, 155
07:58, 100%, 0, 000%, -51dBm, 001, 30, 155
07:59, 090%, 0, 000%, -53dBm, 001, 30, 156
08:00, 100%, 0, 000%, -54dBm, 001, 30, 157
08:01, 100%, 0, 000%, -54dBm, 001, 30, 161
08:02, 100%, 0, 000%, -54dBm, 001, 29, 165
08:03, 100%, 0, 000%, -57dBm, 001, 28, 170
08:04, 100%, 0, 000%, -55dBm, 001, 27, 176
08:05, 100%, 2, 000%, -53dBm, 001, 25, 180
08:06, 100%, 0, 000%, -54dBm, 001, 24, 185
08:07, 100%, 0, 000%, -56dBm, 001, 23, 190
08:08, 100%, 0, 000%, -56dBm, 001, 23, 195
08:09, 090%, 0, 000%, -57dBm, 001, 23, 199
08:10, 090%, 0, 000%, -55dBm, 001, 23, 202
08:11, 095%, 0, 000%, -53dBm, 001, 22, 202
08:12, 095%, 0, 000%, -52dBm, 001, 21, 199
08:13, 090%, 0, 000%, -44dBm, 001, 21, 192
08:14, 095%, 0, 000%, -42dBm, 001, 21, 178
08:14, 095%, 0, 000%, -42dBm, 001, 20, 166
08:15, 100%, 0, 000%, -49dBm, 001, 16, 150
08:17, 090%, 0, 000%, -52dBm, 001, 12, 132
08:18, 100%, 0, 000%, -53dBm, 001, 10, 114
08:19, 100%, 0, 000%, -51dBm, 001, 8, 96
08:20, 100%, 0, 000%, -44dBm, 001, 7, 79
08:21, 100%, 0, 000%, -44dBm, 001, 6, 62
08:22, 100%, 0, 000%, -53dBm, 001, 6, 44
08:23, 100%, 0, 000%, -51dBm, 001, 5, 30
08:24, 090%, 2, 000%, -52dBm, 001, 5, 21
08:25, 100%, 0, 000%, -50dBm, 001, 5, 23
08:26, 090%, 2, 000%, -48dBm, 001, 5, 34
08:27, 090%, 0, 000%, -51dBm, 001, 5, 47
08:28, 100%, 0, 000%, -58dBm, 001, 7, 59
08:29, 100%, 1, 000%, -58dBm, 001, 10, 72
08:30, 095%, 1, 000%, -54dBm, 001, 17, 87
08:31, 100%, 2, 000%, -48dBm, 001, 24, 96
08:32, 100%, 1, 000%, -50dBm, 001, 33, 104
08:33, 100%, 2, 000%, -44dBm, 001, 40, 110
08:34, 090%, 0, 000%, -44dBm, 001, 48, 112
08:35, 090%, 0, 000%, -51dBm, 001, 55, 114
08:36, 095%, 0, 000%, -54dBm, 001, 63, 113
08:37, 100%, 0, 000%, -48dBm, 001, 70, 112
08:39, 100%, 0, 000%, -47dBm, 001, 79, 112
08:40, 090%, 0, 000%, -47dBm, 001, 86, 111
08:41, 100%, 0, 000%, -45dBm, 001, 94, 111
08:42, 100%, 2, 000%, -47dBm, 001, 102, 115
08:43, 100%, 1, 000%, -55dBm, 001, 110, 117
08:44, 100%, 2, 000%, -59dBm, 001, 118, 121
08:45, 100%, 0, 000%, -59dBm, 001, 127, 125
08:46, 100%, 0, 000%, -61dBm, 001, 135, 130
08:46, 100%, 1, 000%, -60dBm, 001, 143, 137
08:47, 100%, 2, 000%, -61dBm, 001, 151, 143
08:48, 090%, 2, 000%, -60dBm, 001, 158, 149
08:49, 090%, 1, 000%, -61dBm, 001, 165, 155
08:50, 100%, 2, 000%, -63dBm, 001, 172, 161
08:51, 090%, 0, 000%, -63dBm, 001, 181, 168
08:52, 080%, 0, 000%, -64dBm, 001, 187, 172
08:53, 070%, 0, 000%, -61dBm, 001, 195, 177
08:54, 095%, 1, 000%, -54dBm, 001, 202, 178
08:55, 100%, 1, 000%, -53dBm, 001, 208, 173
08:56, 100%, 2, 000%, -59dBm, 001, 211, 162
08:57, 095%, 2, 000%, -53dBm, 001, 209, 146
08:58, 100%, 2, 000%, -48dBm, 001, 206, 128
09:00, 100%, 1, 000%, -48dBm, 001, 203, 123
09:01, 100%, 0, 000%, -49dBm, 001, 203, 134
09:02, 100%, 0, 000%, -51dBm, 001, 205, 143
09:03, 090%, 0, 000%, -50dBm, 001, 205, 145
09:04, 100%, 0, 000%, -50dBm, 001, 203, 139
09:05, 100%, 0, 000%, -52dBm, 001, 199, 122
09:06, 100%, 0, 000%, -49dBm, 001, 197, 103
09:07, 095%, 0, 000%, -49dBm, 001, 196, 99
09:07, 100%, 0, 000%, -52dBm, 001, 196, 107
09:08, 100%, 0, 000%, -52dBm, 001, 197, 116
09:09, 100%, 0, 000%, -51dBm, 001, 198, 125
09:10, 100%, 0, 000%, -49dBm, 001, 199, 128
09:11, 100%, 0, 000%, -49dBm, 001, 199, 129
09:12, 100%, 1, 000%, -54dBm, 001, 198, 128
09:13, 100%, 1, 000%, -49dBm, 001, 196, 124
09:14, 100%, 0, 000%, -48dBm, 001, 193, 114
09:15, 100%, 0, 000%, -47dBm, 001, 191, 104
09:16, 100%, 0, 000%, -49dBm, 001, 190, 93
09:17, 100%, 0, 000%, -49dBm, 001, 190, 85
09:18, 100%, 2, 000%, -52dBm, 001, 190, 81
09:19, 100%, 1, 000%, -53dBm, 001, 190, 81
09:21, 100%, 0, 000%, -56dBm, 001, 191, 85
09:22, 100%, 0, 000%, -63dBm, 001, 191, 91
09:23, 100%, 0, 000%, -58dBm, 001, 190, 98
09:24, 100%, 1, 000%, -59dBm, 001, 190, 106
09:25, 100%, 1, 000%, -61dBm, 001, 189, 115
09:26, 090%, 0, 000%, -62dBm, 001, 189, 125
09:27, 100%, 0, 000%, -58dBm, 001, 189, 136
09:28, 100%, 0, 000%, -58dBm, 001, 190, 146
09:29, 100%, 0, 000%, -70dBm, 001, 189, 157
09:30, 090%, 0, 000%, -73dBm, 001, 188, 167
09:30, 090%, 0, 000%, -72dBm, 001, 186, 179
09:31, 100%, 0, 000%, -71dBm, 001, 184, 192
09:32, 100%, 0, 000%, -72dBm, 001, 184, 206
09:33, 100%, 0, 000%, -72dBm, 001, 183, 221
09:34, 100%, 0, 000%, -68dBm, 001, 183, 232
09:35, 100%, 1, 000%, -71dBm, 001, 182, 244
09:36, 100%, 1, 000%, -64dBm, 001, 180, 249
09:37, 095%, 0, 000%, -65dBm, 001, 178, 249
09:38, 100%, 0, 000%, -49dBm, 001, 176, 244
09:38, 100%, 0, 000%, -49dBm, 001, 175, 235
09:39, 100%, 0, 000%, -50dBm, 001, 173, 226
09:41, 100%, 0, 000%, -56dBm, 001, 173, 219
09:42, 095%, 0, 000%, -61dBm, 001, 172, 215
09:43, 100%, 0, 000%, -58dBm, 001, 172, 219
09:44, 100%, 0, 000%, -63dBm, 001, 172, 230
09:45, 100%, 0, 000%, -61dBm, 001, 171, 242
09:46, 100%, 0, 000%, -61dBm, 001, 169, 251
09:47, 100%, 0, 000%, -66dBm, 001, 166, 255
09:48, 085%, 0, 000%, -53dBm, 001, 162, 254
09:49, 090%, 0, 000%, -49dBm, 001, 157, 248
09:50, 100%, 0, 000%, -50dBm, 001, 152, 239
09:51, 100%, 0, 000%, -50dBm, 001, 149, 230
09:52, 100%, 1, 000%, -48dBm, 001, 147, 224
09:53, 100%, 2, 000%, -47dBm, 001, 147, 219
09:54, 090%, 1, 000%, -47dBm, 001, 147, 215
09:55, 100%, 1, 000%, -49dBm, 001, 148, 212
09:56, 090%, 0, 000%, -50dBm, 001, 148, 212
09:57, 090%, 0, 000%, -50dBm, 001, 148, 210
09:58, 100%, 0, 000%, -52dBm, 001, 147, 209
09:59, 100%, 0, 000%, -49dBm, 001, 147, 207
09:59, 100%, 0, 000%, -49dBm, 001, 147, 206
10:00, 100%, 0, 000%, -51dBm, 001, 146, 205
10:02, 100%, 0, 000%, -54dBm, 001, 145, 205
10:03, 100%, 0, 000%, -55dBm, 001, 144, 207
10:04, 100%, 0, 000%, -59dBm, 001, 144, 209
10:05, 100%, 0, 000%, -61dBm, 001, 143, 211
10:06, 090%, 0, 000%, -61dBm, 001, 143, 212
10:07, 100%, 0, 000%, -58dBm, 001, 142, 216
10:08, 100%, 0, 000%, -57dBm, 001, 142, 219
10:09, 100%, 0, 000%, -52dBm, 001, 142, 222
10:10, 100%, 0, 000%, -52dBm, 001, 141, 225
10:11, 100%, 0, 000%, -54dBm, 001, 140, 227
10:12, 100%, 0, 000%, -54dBm, 001, 140, 228
10:13, 100%, 0, 000%, -54dBm, 001, 139, 233
10:14, 100%, 1, 000%, -53dBm, 001, 137, 236
10:15, 100%, 1, 000%, -54dBm, 001, 137, 240
10:16, 100%, 0, 000%, -56dBm, 001, 137, 245
10:17, 100%, 0, 000%, -54dBm, 001, 136, 251
10:18, 100%, 0, 000%, -56dBm, 001, 135, 253
10:19, 100%, 0, 000%, -53dBm, 001, 134, 256
10:20, 100%, 0, 000%, -54dBm, 001, 133, 259
10:20, 090%, 0, 000%, -58dBm, 001, 133, 262
10:21, 100%, 0, 000%, -58dBm, 001, 133, 266
10:23, 100%, 0, 000%, -58dBm, 001, 131, 272
10:24, 090%, 0, 000%, -61dBm, 001, 130, 274
10:25, 100%, 0, 000%, -58dBm, 001, 128, 276
10:26, 100%, 1, 000%, -60dBm, 001, 125, 276
10:27, 100%, 1, 000%, -59dBm, 001, 124, 271
10:28, 090%, 0, 000%, -52dBm, 001, 121, 261
10:29, 100%, 0, 000%, -50dBm, 001, 120, 251
10:30, 100%, 0, 000%, -50dBm, 001, 118, 240
10:31, 100%, 0, 000%, -50dBm, 001, 117, 232
10:32, 100%, 0, 000%, -47dBm, 001, 117, 223
10:33, 100%, 0, 000%, -45dBm, 001, 117, 217
10:34, 090%, 0, 000%, -45dBm, 001, 117, 210
10:35, 090%, 0, 000%, -45dBm, 001, 117, 204
10:36, 090%, 0, 000%, -45dBm, 001, 117, 197
10:37, 075%, 0, 000%, -47dBm, 001, 117, 194
10:38, 100%, 0, 000%, -53dBm, 001, 116, 192
10:39, 100%, 0, 000%, -54dBm, 001, 115, 192
10:40, 095%, 0, 000%, -56dBm, 001, 115, 193
10:41, 100%, 0, 000%, -53dBm, 001, 114, 191
10:42, 100%, 0, 000%, -54dBm, 001, 114, 189
10:43, 100%, 0, 000%, -54dBm, 001, 113, 189
10:45, 100%, 0, 000%, -55dBm, 001, 112, 187
10:46, 100%, 0, 000%, -53dBm, 001, 112, 187
10:47, 100%, 0, 000%, -56dBm, 001, 112, 188
10:48, 100%, 0, 000%, -56dBm, 001, 112, 191
10:49, 100%, 0, 000%, -59dBm, 001, 112, 193
10:50, 100%, 0, 000%, -54dBm, 001, 111, 197
10:51, 100%, 0, 000%, -57dBm, 001, 110, 202
10:52, 100%, 0, 000%, -57dBm, 001, 110, 208
10:53, 100%, 0, 000%, -56dBm, 001, 110, 212
10:54, 100%, 0, 000%, -56dBm, 001, 109, 214
10:54, 100%, 0, 000%, -59dBm, 001, 110, 216
10:55, 100%, 0, 000%, -59dBm, 001, 110, 216
10:56, 100%, 0, 000%, -58dBm, 001, 110, 210
10:57, 100%, 1, 000%, -53dBm, 001, 109, 197
10:58, 100%, 1, 000%, -56dBm, 001, 107, 184
10:59, 100%, 0, 000%, -59dBm, 001, 104, 168
11:00, 095%, 0, 000%, -54dBm, 001, 102, 150
11:01, 100%, 0, 000%, -50dBm, 001, 100, 131
11:02, 100%, 0, 000%, -50dBm, 001, 98, 114
11:03, 100%, 0, 000%, -52dBm, 001, 98, 98
11:04, 100%, 2, 000%, -56dBm, 001, 98, 83
11:06, 100%, 2, 000%, -48dBm, 001, 98, 72
11:07, 090%, 1, 000%, -46dBm, 001, 99, 61
11:08, 100%, 1, 000%, -49dBm, 001, 100, 52
11:09, 100%, 0, 000%, -50dBm, 001, 99, 44
11:10, 100%, 0, 000%, -50dBm, 001, 99, 40
11:11, 100%, 1, 000%, -47dBm, 001, 98, 39
11:12, 095%, 1, 000%, -49dBm, 001, 98, 43
11:13, 100%, 0, 000%, -59dBm, 001, 99, 51
11:14, 100%, 0, 000%, -58dBm, 001, 99, 59
11:15, 090%, 1, 000%, -56dBm, 001, 97, 69
11:15, 100%, 1, 000%, -54dBm, 001, 96, 80
11:16, 100%, 0, 000%, -50dBm, 001, 95, 95
11:17, 100%, 0, 000%, -50dBm, 001, 95, 109
11:18, 090%, 0, 000%, -68dBm, 001, 95, 122
11:18, 060%, 0, 000%, -72dBm, 001, 96, 129
11:20, 050%, 0, 000%, -71dBm, 001, 96, 146
11:21, 025%, 0, 000%, -73dBm, 001, 96, 157
11:22, 100%, 0, 000%, -70dBm, 001, 95, 169
11:23, 100%, 0, 000%, -64dBm, 001, 94, 183
11:24, 080%, 0, 000%, -59dBm, 001, 93, 195
11:25, 095%, 0, 000%, -61dBm, 001, 93, 207
11:27, 100%, 0, 000%, -61dBm, 001, 93, 220
11:28, 090%, 0, 000%, -65dBm, 001, 92, 231
11:29, 100%, 0, 000%, -64dBm, 001, 91, 238
11:30, 100%, 0, 000%, -62dBm, 001, 88, 239
11:31, 100%, 1, 000%, -57dBm, 001, 86, 236
11:32, 100%, 1, 000%, -53dBm, 001, 84, 232
11:33, 095%, 0, 000%, -54dBm, 001, 83, 227
11:34, 100%, 0, 000%, -54dBm, 001, 82, 220
11:35, 100%, 0, 000%, -54dBm, 001, 80, 216
11:36, 100%, 0, 000%, -55dBm, 001, 78, 210
11:36, 100%, 0, 000%, -54dBm, 001, 77, 205
11:37, 100%, 0, 000%, -55dBm, 001, 76, 202
11:38, 100%, 0, 000%, -56dBm, 001, 75, 200
11:39, 100%, 0, 000%, -59dBm, 001, 75, 200
11:40, 100%, 0, 000%, -63dBm, 001, 75, 202
11:41, 100%, 0, 000%, -70dBm, 001, 76, 204
11:42, 100%, 0, 000%, -71dBm, 001, 75, 206
11:43, 100%, 0, 000%, -72dBm, 001, 74, 208
11:44, 085%, 0, 000%, -75dBm, 001, 74, 209
11:45, 055%, 0, 000%, -77dBm, 001, 73, 210
11:46, 075%, 0, 000%, -72dBm, 001, 71, 210
11:47, 100%, 0, 000%, -71dBm, 001, 70, 211
11:48, 095%, 0, 000%, -67dBm, 001, 69, 214
11:49, 100%, 0, 000%, -61dBm, 001, 68, 216
11:50, 100%, 0, 000%, -57dBm, 001, 68, 220
11:51, 100%, 0, 000%, -60dBm, 001, 68, 223
11:52, 090%, 0, 000%, -56dBm, 001, 68, 228
11:53, 095%, 0, 000%, -61dBm, 001, 68, 233
11:54, 100%, 0, 000%, -57dBm, 001, 68, 238
11:55, 100%, 0, 000%, -56dBm, 001, 68, 242
11:56, 090%, 0, 000%, -54dBm, 001, 67, 245
11:57, 100%, 0, 000%, -53dBm, 001, 67, 248
11:58, 100%, 0, 000%, -53dBm, 001, 67, 251
11:59, 100%, 0, 000%, -52dBm, 001, 66, 254
12:00, 100%, 0, 000%, -54dBm, 001, 65, 258
12:01, 100%, 0, 000%, -61dBm, 001, 63, 263
12:02, 100%, 0, 000%, -57dBm, 001, 61, 266
12:03, 100%, 0, 000%, -53dBm, 001, 60, 270
12:04, 100%, 0, 000%, -53dBm, 001, 59, 274
12:05, 100%, 0, 000%, -54dBm, 001, 58, 275
12:06, 100%, 0, 000%, -57dBm, 001, 56, 273
12:07, 090%, 0, 000%, -50dBm, 001, 55, 267
12:08, 090%, 0, 000%, -47dBm, 001, 54, 259
12:09, 100%, 0, 000%, -45dBm, 001, 53, 252
12:10, 100%, 0, 000%, -46dBm, 001, 52, 241
12:11, 100%, 0, 000%, -45dBm, 001, 51, 231
12:12, 100%, 1, 000%, -45dBm, 001, 51, 221
12:13, 100%, 1, 000%, -44dBm, 001, 50, 213
12:14, 100%, 0, 000%, -45dBm, 001, 49, 206
12:15, 100%, 0, 000%, -46dBm, 001, 48, 198
12:16, 100%, 1, 000%, -48dBm, 001, 47, 192
12:17, 100%, 1, 000%, -54dBm, 001, 45, 189
12:18, 100%, 2, 000%, -59dBm, 001, 45, 186
12:19, 100%, 0, 000%, -64dBm, 001, 45, 185
12:20, 100%, 0, 000%, -61dBm, 001, 44, 184
12:21, 100%, 0, 000%, -58dBm, 001, 44, 182
12:22, 100%, 0, 000%, -64dBm, 001, 45, 181
12:23, 100%, 0, 000%, -56dBm, 001, 44, 181
12:24, 100%, 0, 000%, -57dBm, 001, 43, 183
12:25, 100%, 0, 000%, -61dBm, 001, 42, 187
12:26, 100%, 0, 000%, -64dBm, 001, 42, 192
12:27, 090%, 0, 000%, -62dBm, 001, 42, 196
12:28, 100%, 0, 000%, -60dBm, 001, 43, 199
12:29, 100%, 0, 000%, -60dBm, 001, 43, 202
12:30, 100%, 1, 000%, -56dBm, 001, 43, 206
12:31, 100%, 1, 000%, -56dBm, 001, 43, 209
12:32, 100%, 0, 000%, -57dBm, 001, 42, 212
12:33, 095%, 0, 000%, -58dBm, 001, 42, 214
12:34, 100%, 0, 000%, -57dBm, 001, 42, 215
12:35, 100%, 0, 000%, -53dBm, 001, 42, 211
12:36, 100%, 0, 000%, -44dBm, 001, 41, 203
12:37, 100%, 0, 000%, -42dBm, 001, 41, 190
12:38, 100%, 0, 000%, -42dBm, 001, 40, 175
12:39, 100%, 0, 000%, -49dBm, 001, 38, 161
12:40, 100%, 0, 000%, -52dBm, 001, 36, 147
12:41, 100%, 0, 000%, -52dBm, 001, 34, 132
12:42, 075%, 0, 000%, -53dBm, 001, 33, 116
12:43, 095%, 0, 000%, -52dBm, 001, 32, 98
12:44, 100%, 0, 000%, -49dBm, 001, 31, 79
12:45, 100%, 0, 000%, -45dBm, 001, 30, 62
12:46, 100%, 0, 000%, -44dBm, 001, 30, 45
12:47, 100%, 0, 000%, -52dBm, 001, 30, 33
12:48, 100%, 0, 000%, -54dBm, 001, 30, 28
12:49, 100%, 1, 000%, -61dBm, 001, 31, 32
12:51, 085%, 1, 000%, -68dBm, 001, 30, 40
12:52, 100%, 0, 000%, -66dBm, 001, 30, 51
12:53, 090%, 0, 000%, -67dBm, 001, 29, 64
12:54, 090%, 0, 000%, -70dBm, 001, 29, 75
12:55, 095%, 0, 000%, -71dBm, 001, 28, 88
12:56, 090%, 0, 000%, -62dBm, 001, 27, 99
12:57, 095%, 2, 000%, -59dBm, 001, 25, 104
12:58, 100%, 0, 000%, -50dBm, 001, 25, 105
12:59, 100%, 0, 000%, -43dBm, 001, 26, 104
13:00, 100%, 0, 000%, -44dBm, 001, 30, 101
13:00, 100%, 1, 000%, -45dBm, 001, 35, 100
13:01, 100%, 2, 000%, -47dBm, 001, 43, 103
13:02, 100%, 0, 000%, -49dBm, 001, 50, 105
13:03, 100%, 0, 000%, -53dBm, 001, 57, 107
13:04, 100%, 0, 000%, -56dBm, 001, 65, 110
13:05, 100%, 0, 000%, -54dBm, 001, 75, 112
13:06, 090%, 0, 000%, -56dBm, 001, 85, 114
13:07, 090%, 0, 000%, -55dBm, 001, 94, 114
13:08, 100%, 1, 000%, -56dBm, 001, 103, 113
13:09, 095%, 1, 000%, -59dBm, 001, 111, 115
13:10, 100%, 2, 000%, -57dBm, 001, 118, 118
13:12, 095%, 2, 000%, -57dBm, 001, 126, 124
13:13, 100%, 1, 000%, -55dBm, 001, 133, 134
13:14, 095%, 0, 000%, -57dBm, 001, 140, 144
13:15, 090%, 0, 000%, -58dBm, 001, 147, 155
13:16, 100%, 1, 000%, -64dBm, 001, 154, 166
13:17, 095%, 2, 000%, -67dBm, 001, 161, 178
13:18, 095%, 2, 000%, -67dBm, 001, 168, 189
13:19, 060%, 1, 000%, -73dBm, 001, 176, 198
13:20, 100%, 2, 000%, -66dBm, 001, 182, 205
13:21, 100%, 0, 000%, -68dBm, 001, 185, 211
13:22, 100%, 0, 000%, -66dBm, 001, 183, 213
13:23, 100%, 0, 000%, -71dBm, 001, 184, 209
13:23, 085%, 0, 000%, -67dBm, 001, 184, 199
13:24, 090%, 0, 000%, -65dBm, 001, 184, 184
13:25, 100%, 0, 000%, -57dBm, 001, 184, 170
13:26, 100%, 0, 000%, -58dBm, 001, 181, 155
13:27, 100%, 0, 000%, -56dBm, 001, 181, 140
13:28, 085%, 0, 000%, -50dBm, 001, 180, 125
13:29, 085%, 0, 000%, -49dBm, 001, 180, 110
13:30, 100%, 1, 000%, -49dBm, 001, 179, 95
13:31, 100%, 1, 000%, -50dBm, 001, 178, 79
13:33, 100%, 0, 000%, -50dBm, 001, 177, 67
13:34, 100%, 0, 000%, -50dBm, 001, 177, 56
13:35, 100%, 0, 000%, -52dBm, 001, 177, 53
13:36, 100%, 0, 000%, -54dBm, 001, 177, 53
13:37, 090%, 1, 000%, -59dBm, 001, 177, 57
13:38, 090%, 1, 000%, -61dBm, 001, 177, 63
13:39, 100%, 0, 000%, -59dBm, 001, 176, 70
13:40, 100%, 0, 000%, -60dBm, 001, 175, 78
13:41, 100%, 0, 000%, -63dBm, 001, 173, 88
13:42, 100%, 0, 000%, -63dBm, 001, 171, 98
13:42, 095%, 1, 000%, -57dBm, 001, 172, 110
13:43, 100%, 1, 000%, -56dBm, 001, 174, 122
13:44, 095%, 0, 000%, -55dBm, 001, 174, 134
13:45, 090%, 0, 000%, -57dBm, 001, 174, 144
13:46, 100%, 0, 000%, -64dBm, 001, 172, 155
13:47, 100%, 0, 000%, -64dBm, 001, 171, 167
13:48, 100%, 0, 000%, -66dBm, 001, 172, 179
13:49, 100%, 0, 000%, -64dBm, 001, 171, 190
13:50, 090%, 0, 000%, -64dBm, 001, 170, 200
13:51, 100%, 0, 000%, -75dBm, 001, 169, 211
13:52, 100%, 0, 000%, -73dBm, 001, 169, 223
13:54, 095%, 0, 000%, -73dBm, 001, 169, 234
13:55, 100%, 0, 000%, -68dBm, 001, 167, 244
13:55, 100%, 0, 000%, -64dBm, 001, 164, 252
13:56, 100%, 1, 000%, -66dBm, 001, 162, 256
13:57, 100%, 1, 000%, -62dBm, 001, 160, 256
13:58, 100%, 0, 000%, -53dBm, 001, 159, 254
13:59, 100%, 0, 000%, -49dBm, 001, 158, 250
14:00, 100%, 0, 000%, -48dBm, 001, 156, 244
14:01, 100%, 0, 000%, -48dBm, 001, 156, 240
14:02, 100%, 0, 000%, -48dBm, 001, 156, 237
14:03, 100%, 0, 000%, -48dBm, 001, 156, 234
14:04, 100%, 0, 000%, -48dBm, 001, 156, 232
14:05, 100%, 0, 000%, -48dBm, 001, 156, 230
14:06, 100%, 0, 000%, -48dBm, 001, 155, 229
14:07, 100%, 0, 000%, -49dBm, 001, 154, 227
14:08, 100%, 0, 000%, -49dBm, 001, 152, 226
14:09, 100%, 0, 000%, -48dBm, 001, 149, 223
14:10, 100%, 0, 000%, -46dBm, 001, 147, 221
14:11, 100%, 0, 000%, -48dBm, 001, 146, 219
14:12, 100%, 0, 000%, -49dBm, 001, 146, 219
14:13, 100%, 0, 000%, -54dBm, 001, 147, 221
14:15, 100%, 0, 000%, -53dBm, 001, 147, 223
14:16, 090%, 0, 000%, -52dBm, 001, 146, 225
14:16, 090%, 0, 000%, -52dBm, 001, 145, 226
14:17, 100%, 1, 000%, -54dBm, 001, 143, 225
14:18, 100%, 1, 000%, -54dBm, 001, 142, 226
14:19, 100%, 0, 000%, -53dBm, 001, 142, 227
14:20, 100%, 0, 000%, -53dBm, 001, 141, 228
14:21, 100%, 0, 000%, -52dBm, 001, 140, 231
14:22, 100%, 0, 000%, -50dBm, 001, 139, 235
14:23, 100%, 0, 000%, -50dBm, 001, 138, 238
14:24, 100%, 0, 000%, -51dBm, 001, 137, 240
14:25, 100%, 0, 000%, -50dBm, 001, 136, 242
14:26, 100%, 0, 000%, -50dBm, 001, 137, 244
14:27, 100%, 0, 000%, -50dBm, 001, 137, 247
14:28, 100%, 0, 000%, -52dBm, 001, 138, 251
14:29, 095%, 0, 000%, -54dBm, 001, 137, 255
14:30, 100%, 0, 000%, -55dBm, 001, 136, 261
14:31, 100%, 0, 000%, -58dBm, 001, 135, 265
14:32, 090%, 0, 000%, -57dBm, 001, 134, 271
14:33, 100%, 0, 000%, -55dBm, 001, 133, 274
14:34, 100%, 0, 000%, -55dBm, 001, 132, 275
14:36, 100%, 0, 000%, -59dBm, 001, 131, 273
14:37, 095%, 0, 000%, -50dBm, 001, 129, 266
14:37, 095%, 0, 000%, -48dBm, 001, 127, 257
14:38, 100%, 0, 000%, -48dBm, 001, 126, 246
14:39, 100%, 0, 000%, -47dBm, 001, 126, 236
14:40, 100%, 0, 000%, -47dBm, 001, 127, 225
14:41, 070%, 0, 000%, -47dBm, 001, 127, 217
14:42, 095%, 0, 000%, -47dBm, 001, 128, 208
14:43, 100%, 1, 000%, -47dBm, 001, 129, 202
14:44, 100%, 1, 000%, -47dBm, 001, 128, 198
14:45, 095%, 0, 000%, -49dBm, 001, 127, 197
14:46, 100%, 0, 000%, -50dBm, 001, 126, 196
14:47, 100%, 0, 000%, -53dBm, 001, 125, 195
14:48, 100%, 0, 000%, -53dBm, 001, 124, 195
14:49, 100%, 0, 000%, -54dBm, 001, 124, 197
14:50, 100%, 0, 000%, -53dBm, 001, 124, 197
14:51, 095%, 0, 000%, -54dBm, 001, 124, 196
14:52, 100%, 0, 000%, -54dBm, 001, 124, 196
14:53, 100%, 1, 000%, -57dBm, 001, 123, 198
14:54, 100%, 1, 000%, -59dBm, 001, 122, 200
14:55, 100%, 0, 000%, -58dBm, 001, 122, 202
14:57, 100%, 0, 000%, -57dBm, 001, 121, 205
14:58, 100%, 0, 000%, -58dBm, 001, 121, 207
14:59, 100%, 0, 000%, -58dBm, 001, 121, 209
15:00, 100%, 0, 000%, -59dBm, 001, 121, 211
15:01, 090%, 0, 000%, -57dBm, 001, 121, 213
15:02, 100%, 0, 000%, -56dBm, 001, 120, 213
15:03, 100%, 0, 000%, -56dBm, 001, 121, 214
15:04, 100%, 0, 000%, -56dBm, 001, 121, 214
15:05, 065%, 0, 000%, -54dBm, 001, 121, 216
15:06, 100%, 0, 000%, -54dBm, 001, 120, 217
15:07, 100%, 0, 000%, -54dBm, 001, 119, 217
15:08, 100%, 0, 000%, -54dBm, 001, 119, 216
15:08, 100%, 0, 000%, -57dBm, 001, 119, 211
15:09, 100%, 1, 000%, -46dBm, 001, 119, 202
15:10, 100%, 1, 000%, -46dBm, 001, 118, 189
15:11, 100%, 0, 000%, -47dBm, 001, 116, 173
15:12, 100%, 0, 000%, -55dBm, 001, 114, 159
15:13, 100%, 0, 000%, -53dBm, 001, 113, 146
15:14, 100%, 0, 000%, -55dBm, 001, 113, 130
15:15, 100%, 0, 000%, -56dBm, 001, 113, 115
15:16, 100%, 0, 000%, -50dBm, 001, 112, 101
15:18, 100%, 0, 000%, -46dBm, 001, 112, 89
15:19, 100%, 1, 000%, -44dBm, 001, 112, 78
15:20, 100%, 1, 000%, -45dBm, 001, 112, 71
15:21, 095%, 0, 000%, -52dBm, 001, 112, 61
15:22, 095%, 0, 000%, -52dBm, 001, 111, 53
15:23, 100%, 0, 000%, -50dBm, 001, 109, 45
15:24, 100%, 0, 000%, -51dBm, 001, 107, 41
15:25, 100%, 1, 000%, -50dBm, 001, 105, 44
15:26, 100%, 1, 000%, -49dBm, 001, 103, 51
15:27, 100%, 0, 000%, -50dBm, 001, 103, 63
15:28, 100%, 0, 000%, -52dBm, 001, 104, 76
15:29, 100%, 0, 000%, -50dBm, 001, 105, 89
15:29, 100%, 0, 000%, -50dBm, 001, 105, 101
15:30, 100%, 0, 000%, -54dBm, 001, 104, 113
15:31, 100%, 0, 000%, -59dBm, 001, 103, 127
15:32, 090%, 0, 000%, -62dBm, 001, 101, 142
15:33, 100%, 0, 000%, -62dBm, 001, 100, 157
15:34, 100%, 0, 000%, -62dBm, 001, 100, 171
15:35, 090%, 0, 000%, -61dBm, 001, 99, 185
15:36, 090%, 0, 000%, -60dBm, 001, 99, 200
15:37, 100%, 0, 000%, -59dBm, 001, 98, 212
15:39, 100%, 2, 000%, -58dBm, 001, 96, 224
15:40, 100%, 2, 000%, -66dBm, 001, 94, 230
15:41, 095%, 0, 000%, -64dBm, 001, 93, 232
15:42, 100%, 0, 000%, -57dBm, 001, 91, 231
15:43, 100%, 0, 000%, -51dBm, 001, 89, 226
15:44, 100%, 0, 000%, -51dBm, 001, 88, 222
15:45, 100%, 0, 000%, -52dBm, 001, 87, 215
15:46, 100%, 0, 000%, -52dBm, 001, 85, 209
15:47, 100%, 0, 000%, -50dBm, 001, 84, 203
15:48, 100%, 0, 000%, -49dBm, 001, 83, 198
15:49, 095%, 0, 000%, -48dBm, 001, 83, 195
15:50, 100%, 2, 000%, -49dBm, 001, 83, 193
15:50, 100%, 0, 000%, -53dBm, 001, 83, 194
15:51, 095%, 0, 000%, -56dBm, 001, 82, 198
15:52, 100%, 0, 000%, -61dBm, 001, 81, 202
15:53, 100%, 0, 000%, -63dBm, 001, 80, 206
15:54, 100%, 0, 000%, -68dBm, 001, 79, 208
15:55, 095%, 0, 000%, -71dBm, 001, 78, 208
15:56, 055%, 0, 000%, -76dBm, 001, 77, 209
15:57, 045%, 0, 000%, -75dBm, 001, 77, 210
15:58, 100%, 0, 000%, -65dBm, 001, 77, 213
16:00, 100%, 0, 000%, -62dBm, 001, 77, 217
16:01, 100%, 0, 000%, -61dBm, 001, 77, 223
16:01, 100%, 0, 000%, -60dBm, 001, 76, 228
16:02, 100%, 0, 000%, -60dBm, 001, 75, 233
16:03, 100%, 0, 000%, -56dBm, 001, 74, 237
16:04, 100%, 0, 000%, -54dBm, 001, 74, 242
16:05, 100%, 0, 000%, -54dBm, 001, 73, 248
16:06, 090%, 0, 000%, -55dBm, 001, 72, 254
16:07, 100%, 0, 000%, -59dBm, 001, 72, 260
16:08, 085%, 1, 000%, -58dBm, 001, 71, 267
16:09, 080%, 1, 000%, -62dBm, 001, 71, 272
16:10, 100%, 0, 000%, -59dBm, 001, 70, 275
16:11, 100%, 0, 000%, -55dBm, 001, 69, 276
16:12, 090%, 0, 000%, -61dBm, 001, 67, 271
16:13, 100%, 0, 000%, -48dBm, 001, 66, 263
16:14, 095%, 0, 000%, -45dBm, 001, 65, 253
16:15, 090%, 0, 000%, -45dBm, 001, 64, 242
16:16, 100%, 0, 000%, -46dBm, 001, 63, 230
16:17, 100%, 0, 000%, -47dBm, 001, 64, 219
16:18, 100%, 0, 000%, -47dBm, 001, 63, 207
16:19, 100%, 0, 000%, -48dBm, 001, 64, 197
16:20, 100%, 0, 000%, -48dBm, 001, 63, 189
16:21, 090%, 0, 000%, -50dBm, 001, 62, 181
16:22, 100%, 0, 000%, -50dBm, 001, 61, 174
16:23, 090%, 0, 000%, -56dBm, 001, 60, 169
16:24, 100%, 0, 000%, -57dBm, 001, 59, 166
16:25, 100%, 0, 000%, -66dBm, 001, 58, 164
16:26, 100%, 0, 000%, -64dBm, 001, 56, 164
16:27, 100%, 0, 000%, -62dBm, 001, 56, 166
16:28, 100%, 0, 000%, -61dBm, 001, 55, 166
16:29, 100%, 0, 000%, -59dBm, 001, 56, 168
16:30, 100%, 0, 000%, -58dBm, 001, 55, 171
16:31, 100%, 0, 000%, -59dBm, 001, 55, 173
16:32, 100%, 1, 000%, -65dBm, 001, 55, 178
16:33, 100%, 1, 000%, -62dBm, 001, 55, 184
16:34, 100%, 0, 000%, -61dBm, 001, 55, 187
16:35, 100%, 0, 000%, -58dBm, 001, 54, 192
16:36, 100%, 0, 000%, -59dBm, 001, 55, 195
16:37, 100%, 0, 000%, -59dBm, 001, 54, 198
16:38, 100%, 0, 000%, -58dBm, 001, 54, 202
16:39, 100%, 0, 000%, -58dBm, 001, 52, 209
16:40, 100%, 0, 000%, -56dBm, 001, 52, 212
16:42, 100%, 0, 000%, -56dBm, 001, 51, 211
16:43, 100%, 0, 000%, -47dBm, 001, 51, 203
16:43, 100%, 0, 000%, -48dBm, 001, 51, 191
16:44, 100%, 1, 000%, -49dBm, 001, 49, 174
16:45, 100%, 2, 000%, -56dBm, 001, 46, 158
16:46, 095%, 1, 000%, -57dBm, 001, 45, 142
16:47, 100%, 1, 000%, -58dBm, 001, 43, 125
16:48, 100%, 0, 000%, -55dBm, 001, 42, 107
16:49, 100%, 0, 000%, -49dBm, 001, 41, 90
16:50, 100%, 0, 000%, -43dBm, 001, 42, 75
16:51, 100%, 0, 000%, -42dBm, 001, 42, 63
16:52, 100%, 0, 000%, -53dBm, 001, 42, 55
16:53, 100%, 1, 000%, -55dBm, 001, 42, 50
16:54, 095%, 1, 000%, -66dBm, 001, 42, 46
16:55, 100%, 0, 000%, -68dBm, 001, 42, 45
16:56, 100%, 1, 000%, -68dBm, 001, 40, 45
16:57, 100%, 1, 000%, -67dBm, 001, 39, 49
16:58, 100%, 0, 000%, -62dBm, 001, 35, 14826
16:59, 080%, 0, 000%, -56dBm, 001, 35, 66
17:00, 085%, 0, 000%, -56dBm, 001, 34, 78
17:01, 090%, 0, 000%, -56dBm, 001, 34, 93
17:03, 100%, 0, 000%, -58dBm, 001, 34, 107
17:04, 100%, 0, 000%, -56dBm, 001, 34, 121
17:04, 100%, 0, 000%, -54dBm, 001, 34, 131
17:05, 090%, 0, 000%, -52dBm, 001, 32, 135
17:06, 100%, 0, 000%, -48dBm, 001, 31, 132
17:07, 100%, 0, 000%, -43dBm, 001, 29, 125
17:09, 080%, 0, 000%, -43dBm, 001, 26, 116
17:10, 100%, 1, 000%, -42dBm, 001, 24, 107
17:11, 100%, 1, 000%, -39dBm, 001, 23, 98
17:12, 100%, 1, 000%, -39dBm, 001, 25, 90
17:13, 100%, 1, 000%, -40dBm, 001, 28, 84
17:14, 100%, 1, 000%, -47dBm, 001, 32, 80
17:15, 100%, 0, 000%, -50dBm, 001, 38, 80
17:16, 100%, 1, 000%, -59dBm, 001, 46, 82
17:17, 100%, 1, 000%, -58dBm, 001, 53, 85
17:17, 100%, 0, 000%, -57dBm, 001, 63, 89
17:18, 100%, 0, 000%, -49dBm, 001, 71, 95
17:19, 095%, 0, 000%, -51dBm, 001, 81, 101
17:20, 100%, 0, 000%, -58dBm, 001, 89, 107
17:22, 100%, 0, 000%, -56dBm, 001, 96, 113
17:23, 100%, 2, 000%, -56dBm, 001, 104, 121
17:24, 075%, 2, 000%, -58dBm, 001, 112, 128
17:25, 095%, 1, 000%, -60dBm, 001, 121, 137
17:26, 100%, 1, 000%, -67dBm, 001, 129, 146
17:27, 100%, 1, 000%, -66dBm, 001, 136, 156
17:28, 040%, 0, 000%, -72dBm, 001, 145, 166
17:29, 060%, 1, 000%, -72dBm, 001, 152, 177
17:30, 100%, 2, 000%, -71dBm, 001, 160, 185
17:31, 100%, 1, 000%, -67dBm, 001, 167, 194
17:32, 100%, 2, 000%, -68dBm, 001, 175, 200
17:33, 085%, 1, 000%, -68dBm, 001, 182, 203
17:34, 085%, 2, 000%, -68dBm, 001, 192, 198
17:35, 085%, 1, 000%, -62dBm, 001, 192, 191
17:35, 090%, 0, 000%, -61dBm, 001, 190, 177
17:36, 100%, 0, 000%, -56dBm, 001, 187, 162
17:37, 100%, 0, 000%, -57dBm, 001, 188, 152
17:38, 100%, 0, 000%, -56dBm, 001, 191, 145
17:39, 100%, 0, 000%, -58dBm, 001, 192, 137
17:40, 100%, 0, 000%, -57dBm, 001, 191, 130
17:41, 100%, 0, 000%, -48dBm, 001, 188, 121
17:42, 100%, 0, 000%, -48dBm, 001, 185, 108
17:43, 100%, 0, 000%, -52dBm, 001, 183, 96
17:45, 100%, 0, 000%, -52dBm, 001, 184, 86
17:46, 100%, 0, 000%, -52dBm, 001, 186, 79
17:47, 100%, 0, 000%, -55dBm, 001, 187, 76
17:48, 100%, 0, 000%, -57dBm, 001, 188, 72
17:49, 100%, 0, 000%, -57dBm, 001, 188, 71
17:50, 090%, 1, 000%, -54dBm, 001, 186, 69
17:51, 095%, 1, 000%, -53dBm, 001, 185, 71
17:52, 090%, 0, 000%, -53dBm, 001, 185, 76
17:53, 100%, 0, 000%, -58dBm, 001, 186, 83
17:54, 090%, 0, 000%, -59dBm, 001, 186, 91
17:55, 100%, 0, 000%, -60dBm, 001, 184, 98
17:56, 100%, 0, 000%, -59dBm, 001, 182, 109
17:56, 100%, 0, 000%, -58dBm, 001, 182, 122
17:57, 100%, 0, 000%, -57dBm, 001, 182, 132
17:58, 100%, 0, 000%, -59dBm, 001, 182, 143
17:59, 100%, 0, 000%, -64dBm, 001, 181, 156
18:00, 095%, 0, 000%, -68dBm, 001, 179, 170
18:01, 090%, 0, 000%, -67dBm, 001, 177, 184
18:02, 100%, 0, 000%, -67dBm, 001, 176, 199
18:03, 100%, 0, 000%, -66dBm, 001, 176, 214
18:04, 100%, 0, 000%, -68dBm, 001, 176, 227
18:06, 100%, 1, 000%, -63dBm, 001, 175, 237
18:07, 085%, 1, 000%, -71dBm, 001, 173, 242
18:08, 100%, 0, 000%, -59dBm, 001, 171, 240
18:09, 095%, 0, 000%, -55dBm, 001, 168, 236
18:10, 100%, 0, 000%, -55dBm, 001, 165, 230
18:11, 090%, 0, 000%, -53dBm, 001, 163, 226
18:12, 100%, 0, 000%, -53dBm, 001, 162, 222
18:13, 100%, 0, 000%, -52dBm, 001, 163, 217
18:13, 100%, 0, 000%, -52dBm, 001, 163, 212
18:14, 100%, 2, 000%, -53dBm, 001, 157, 206
18:15, 095%, 0, 000%, -55dBm, 001, 147, 199
18:16, 090%, 0, 000%, -51dBm, 001, 136, 190
18:17, 100%, 0, 000%, -48dBm, 001, 125, 179
18:18, 100%, 0, 000%, -46dBm, 001, 114, 166
18:19, 100%, 0, 000%, -43dBm, 001, 105, 154
18:20, 100%, 0, 000%, -43dBm, 001, 98, 146
18:21, 100%, 0, 000%, -43dBm, 001, 97, 144
18:22, 090%, 2, 000%, -47dBm, 001, 100, 150
18:23, 090%, 2, 000%, -48dBm, 001, 101, 156
18:24, 100%, 0, 000%, -50dBm, 001, 102, 163
18:25, 090%, 0, 000%, -49dBm, 001, 100, 169
18:27, 100%, 0, 000%, -49dBm, 001, 101, 172
18:28, 100%, 0, 000%, -49dBm, 001, 102, 173
18:29, 100%, 0, 000%, -49dBm, 001, 102, 170
18:30, 100%, 1, 000%, -49dBm, 001, 101, 165
18:30, 090%, 2, 000%, -43dBm, 001, 97, 152
18:31, 100%, 1, 000%, -42dBm, 001, 86, 134
18:32, 100%, 0, 000%, -46dBm, 001, 75, 111
18:33, 100%, 0, 000%, -48dBm, 001, 66, 83
18:34, 100%, 0, 000%, -47dBm, 001, 65, 65
18:35, 100%, 0, 000%, -44dBm, 001, 68, 59
18:36, 100%, 0, 000%, -54dBm, 001, 71, 59
18:37, 100%, 0, 000%, -59dBm, 001, 69, 68
18:38, 100%, 0, 000%, -61dBm, 001, 66, 83
18:39, 100%, 0, 000%, -48dBm, 001, 61, 98
18:40, 100%, 0, 000%, -49dBm, 001, 60, 115
18:41, 100%, 1, 000%, -48dBm, 001, 57, 133
18:42, 095%, 1, 000%, -48dBm, 001, 54, 143
18:43, 075%, 1, 000%, -60dBm, 001, 52, 141
18:44, 100%, 1, 000%, -53dBm, 001, 50, 131
18:45, 100%, 1, 000%, -52dBm, 001, 45, 117
18:46, 100%, 1, 000%, -53dBm, 001, 36, 100
18:48, 100%, 2, 000%, -54dBm, 001, 29, 81
18:49, 100%, 2, 000%, -51dBm, 001, 24, 59
18:50, 100%, 1, 000%, -50dBm, 001, 20, 43
18:51, 100%, 1, 000%, -61dBm, 001, 20, 38
18:52, 100%, 0, 000%, -59dBm, 001, 21, 46
18:53, 065%, 0, 000%, -73dBm, 001, 24, 66
18:53, 085%, 0, 000%, -73dBm, 001, 25, 82
18:54, 100%, 0, 000%, -66dBm, 001, 24, 95
18:55, 100%, 0, 000%, -67dBm, 001, 23, 108
18:56, 100%, 0, 000%, -51dBm, 001, 22, 116
18:57, 100%, 0, 000%, -48dBm, 001, 21, 122
18:58, 100%, 0, 000%, -47dBm, 001, 22, 129
18:59, 100%, 0, 000%, -45dBm, 001, 22, 138
19:00, 100%, 0, 000%, -48dBm, 001, 22, 144
19:01, 100%, 0, 000%, -48dBm, 001, 21, 147
19:02, 100%, 0, 000%, -46dBm, 001, 21, 150
19:03, 100%, 0, 000%, -45dBm, 001, 21, 155
19:04, 100%, 0, 000%, -44dBm, 001, 20, 159
19:05, 100%, 0, 000%, -44dBm, 001, 19, 157
19:07, 100%, 0, 000%, -39dBm, 001, 17, 149
19:08, 100%, 0, 000%, -38dBm, 001, 16, 142
19:09, 100%, 0, 000%, -42dBm, 001, 14, 134
19:10, 100%, 0, 000%, -48dBm, 001, 12, 127
19:11, 100%, 0, 000%, -44dBm, 001, 10, 118
19:12, 090%, 0, 000%, -44dBm, 001, 9, 107
19:12, 090%, 1, 000%, -52dBm, 001, 8, 98
19:13, 100%, 1, 000%, -53dBm, 001, 7, 88
19:14, 100%, 0, 000%, -53dBm, 001, 6, 80
19:15, 090%, 1, 000%, -64dBm, 001, 4, 71
19:16, 100%, 1, 000%, -61dBm, 001, 3, 64
19:17, 095%, 0, 000%, -59dBm, 001, 1, 57
19:19, 100%, 0, 000%, -66dBm, 001, -1, 49
19:20, 100%, 0, 000%, -66dBm, 001, -2, 42
19:21, 100%, 2, 000%, -62dBm, 001, -2, 35
19:22, 100%, 1, 000%, -57dBm, 001, -2, 28
19:22, 100%, 2, 000%, -56dBm, 001, -3, 22
19:23, 100%, 0, 000%, -58dBm, 001, -3, 15
19:24, 090%, 0, 000%, -52dBm, 001, -4, 11
19:25, 100%, 0, 000%, -55dBm, 001, -2, 11
Finish - Alt: -2, Speed: 0.00, Valid :1
0Hz-10Hz: 1%, 10Hz-15Hz: 1%, 15Hz-20Hz: 97%, Total time: 19:25
Total bad link: 1
